{
  "name": "nextjsreactapp",
  "version": "1.0.0",
  "description": "",
  "main": "index.js",
  "scripts": {
    "dev": "nodemon server.js",
    "build": "next build",
    "prod_start": "NODE_ENV=production node server.js",
    "start": "next start -p 5002"
  },
  "author": "",
  "license": "ISC",
  "dependencies": {
    "@woocommerce/woocommerce-rest-api": "^1.0.1",
    "axios": "^0.19.2",
    "isomorphic-unfetch": "^3.0.0",
    "next": "^9.4.4",
    "nodemon": "^2.0.4",
    "react": "^16.13.1",
    "react-dom": "^16.13.1",
    "vercel": "^19.0.1",
    "woocommerce-api": "^1.5.0"
  }
}
